{
    "LanguageName": "Magyar",

    "LoadingText": "Betöltés...",
    "OkButton": "Oké",
    "CancelButton": "Mégsem",
    "YesButton": "Igen",
    "NoButton": "Nem",
    "ContinueButton": "Tovább",
    "BackButton": "Vissza",
    "ExitButton": "Kilépés",
    "EditButton": "Szerkesztés",
    "SaveButton": "Mentés",
    "CopyButton": "Másolás",
    "ChooseFileButton": "Fájl választása...",
    "DefaultValueText": "{} (alapértelmezett)",
    "ErrorPopup": {
        "TitleText": "Hiba!"
    },
    
    "TitleScreen": {
        "DemoText": "DEMO",
        "SingleplayerButton": "Egyjátékos mód",
        "MultiplayerButton": "Többjátékos mód",
        "TutorialButton": "Bevezető",
        "SettingsButton": "Beállítások",
        "CreditsButton": "Készítők",
        "QuitButton": "Játék bezárása"
    },
    
    "Singleplayer": {
        "YourWorldsText": "Világaid:",
        "NoWorldsText": "Nincsenek betöltendő világaid...",
        "InvalidWorldButton": "{} (érvénytelen)",
        "OldWorldButton": "{} (régi)",
        "NewWorldButton": "Új világ",
        "WorldConversionPopup": {
            "TitleText": "Új világformátumra konvertálás?",
            "OldWorldVersionText": "A(z) \"{}\" világot nem lehet betölteni, mert a ({}) világformátum egy régebbi verzióját használja, ami inkompatibilis a jelenlegi verzióval ({}).",
            "OldWorldVersionlessText": "A(z) \"{}\" világot nem lehet betölteni, mert a világformátum egy régebbi verzióját használja, ami inkompatibilis a jelenlegi verzióval.",
            "ConversionPromptText": "Át szeretné konvertálni a világát a jelenlegi verzióra? Van lehetősége előtte létrehozni egy biztonsági mentést."
        },
        "InvalidWorldPopup": {
            "TitleText": "Érvénytelen világ!",
            "InvalidVersionText": "A(z) \"{}\" világot nem lehet betölteni, mert a játék egy jövőbeli verziójából származik, vagy érvénytelen a verziószáma."
        }
    },

    "Multiplayer": {
        "ServerAddressText": "Szerver címe:",
        "DisplayNameText": "Megjelenített név:",
        "DisplayNameInput": "Játékos",
        "UuidText": "UUID:",
        "UuidDescriptionText": "A UUID-d egy titkos érték, amit akkor generélnak, amik először megnyitod ezt az ablakot.\nA UUID-k teszik lehetővé, hogy elmentsd az eredményeidet különböző szervereken.\n\nEZT NE oszd meg senkivel.\nÁtviheted a UUID-dat egy előző installációból a \"uuid.txt\" kicserélése/szerkesztése segítségével.",
        "JoinButton": "Csatlakotás!",
        "ChangeSkinButton": "Kinézet megváltoztatása",
        "Status": {
            "ResolvingHostText": "Gazdagép felkeresése...",
            "ConnectingText": "Csatlakozás...",
            "AuthenticatingText": "Hitelesítés...",
            "RemoteDisconnectedText": "Hiba: A szerver bezárta a kapcsolatot.",
            "FailedToConnectText": "Hiba: Sikertelen csatlakozás.",
            "ErrorText": "Hiba történt.",
            "LoadingTerrainText": "Domborzat betöltése...",
            "QueuePositionText": "A sorban lévő hely: {}",
            "InvalidResponseText": "Hiba: Érvénytelen válasz a szervertől",
            "IncompatibleVersionText": "Hiba: A játék verziója nem egyezik a szerverével.\n\nÉrvényes verziók: {}",
            "ServerFullText": "Hiba: A szerver jelenleg tele van.",
            "LostConnectionText": "Hiba: Megszakadt a kapcsolat"
        }
    },
    
    "CreateWorld": {
        "WorldNameText": "Világ neve:",
        "WorldNameInput": "Új világ",
        "WorldSeedText": "Kezdőérték a világgenerátornak:",
        "FlatWorldCheckbox": "Lapos világ",
        "GenerateCavesCheckbox": "Barlangok generálása (lassabb)",
        "CaveSizeSlider": "Barlangok mérete: {}%",
        "CaveFrequencySlider": "Barlangok gyakorisága: {}%",
        "CaveDetailLevelSlider": "Barlangok kidolgozottságának szintje: {} (erősen befolyásolja a teljesítményt)",
        "BiomeSizeSlider": "Biomok mérete: {}%",
        "TerrainAmplificationSlider": "Domborzat szélőségessége: {}%",
        "CreateNewWorldButton": "Új világ létrehozása!",
        "NoNamePopup": {
            "NoNameText": "Nem tudsz egy világot név nélkül létrehozni!"
        }
    },

    "WorldConverter": {
        "CloseWarningText": "NE zárja be a világot!",
        "BackupWorldTitle": "{} (biztonsági mentést)",
        "BackupStatusText": "\"{}\" biztonsági mentése...",
        "ConversionStatusText": "A(z) \"{}\" világ konvertálása {} verzióról a(z) {} verzióra...",
        "ConversionFinishedText": "Kész!",
        "BackupPopup": {
            "TitleText": "\"{}\" fájlok biztonsági mentése?",
            "PromptText": "A(z) \"{}\" világ mentett adatai megsérülhetnek a konvertálás alatt. Szeretne előbb egy biztonsági mentést készíteni?"
        },
        "ErrorPopup": {
            "GenericConversionErrorText": "Egy hiba lépett fel a világ {} verzióra konvertálása közben.",
            "InvalidObjectText": "Érvénytelen tárgy \"{}\" nem másolható (általános fájl vagy könyvtár szükséges).",
            "CopyErrorText": "\"{}\": \"{}\" tárgy nem másolható",
            "MissingChunksDirText": "Hiányzó \"chunks\" könyvtár.",
            "UnableToOpenFileText": "A(z) \"{}\" fájl nem megnyitható."
        },
        "ConversionStatus": {
            "CleaningUpText": "Tisztogatás..."
        }
    },
    
    "WorldGen": {
        "ProgressText": "{}/{} chunk betöltve"
    },

    "Settings": {
        "ControlsButton": "Irányítás",
        "FullscreenButton": {
            "EnterText": "Teljes képernyő",
            "ExitText": "Kilépés a teljes képernyőböl"
        },
        "RenderDistanceSlider": "Betöltési távolság: {}",
        "ScrollSensitivitySlider": "Görgő érzékenység:",
        "LookSensitivitySlider": "Nézelődési érzékenység:",
        "InvertLookXCheckbox": "X nézelődés invertálása",
        "InvertLookYCheckbox": "Y nézelődés invertálása",
        "FovSlider": {
            "LabelText": "Látószög: {}",
            "ValueText": "{} fok"
        },
        "DifficultySlider": {
            "LabelText": "Nehézség: {}",
            "EasyText": "Könnyű (szörnyek nélkül)",
            "NormalText": "Normál",
            "HardText": "Nehéz"
        },
        "SmoothLightingCheckbox": "Simított megvilágítás",
        "ShadowsCheckbox": "Árnyékok",
        "ColoredLightsCheckbox": "Színezett fények",
        "Forg": {
            "LabelText": "Baké: {}",
            "Names": {
                "Frank": "Zsolti",
                "Fernanda": "Zsófi"
            }
        },
        "Audio": {
            "LabelText": "Hang:",
            "GlobalVolumeSlider": "Globalális hangerő:",
            "MusicVolumeSlider": "Zene hangereje:",
            "CreatureVolumeSlider": "Élőlények hangereje:",
            "AmbienceVolumeSlider": "Környezet hangereje:"
        },
        "Multiplayer": {
            "LabelText": "Többjátékos mód:",
            "ChatCheckbox": "Csevegés megjelenítése",
            "NametagsCheckbox": "Játékos nevek megjelenítése",
            "SkinsCheckbox": "Egyedi játékos kinézetek megjelenítése"
        }
    },

    "Tutorial": {
        "Slideshow": {
            "Slide1": {
                "Text1": "Ez a bevezető a 4D tér megértésében segít.\n\n\n\nA 2Ds és a 3Ds tér közti különbségek megismerésével, hogy hogyan viszonyul a 3Ds tér a 4Dshez."
            },
            "Slide2": {
                "Text1": "Ez {} a bkéa (igen, egy BKÉA)",
                "Text2": "A bkéák 2Ds lények, ami azt jelenti, hogy csak egy 2Ds síkon léteznek, de ez nem gátolja meg őket a 3. dimenzió felfedezésében!\n\n\n\nA bkéák a 3Ds világ bármely síkján mozoghatnak."
            },
            "Slide3": {
                "Text1": "A bkéák rendelkeznek azzal az egyedülálló képességgel, hogy a 3. dimenzióban forgathatják a mozgási síkjukat, így bármilyen keresztmetszetet láthatnak, amit csak akarnak!",
                "Text2": "A következő részen, {}t fogod irányítani, hogy elsőkézből is megtapasztald ezt!"
            },
            "Slide4": {
                "Text1": "A 3. és a 4. dimenzió ugyanezen logika mentén működik.\n\n\nA görgő segítségével teljesen új részeit fedezheted fel a 4Ds világnak!",
                "Text2": "Most már készenállsz arra, hogy elkezdj játszani a 4D Miner-rel! Ha segítségre szorulsz a 4Ds világ navigálásában, akkor fordulj az",
                "Text3": "iránytűhöz!"
            }
        },
        "ForgGame": {
            "2DViewText": "Használd a WASD-t vagy nyilakat {} a bkéa mozgatásához.\n\nHasználd a görgőt a 2Ds metszeted mozgatásához!",
            "3DViewText": "Klikk + mozgasd az egeredet a 3Ds nézet forgatásához"
        }
    },

    "Game": {
        "Chat": {
            "LabelText": "Csevegés:"
        },
        "CraftingMenu": {
            "LabelText": "Barkácsolás:"
        },
        "Compass": {
            "PositionText": "Helyzet: {0}, {1}, {2}, {3}",
            "FacingDirectionText": "Nézési irány: {0}, {1}, {2}, {3}",
            "XText": "X: {}",
            "YText": "Y: {}",
            "ZText": "Z: {}",
            "WText": "W: {}"
        },
        "Chest": {
            "LabelText": "Láda:"
        },
        "Sign": {
            "LabelText": "Tábla:"
        }
    },

    "Pause": {
        "PausedText": "Megállítva...",
        "BackToGameButton": "Vissza a játékba...",
        "QuitToTitleButton": "Kilépés a főképernyőre"
    },

    "DeathScreen": {
        "RetryButton": "Újrakezdés..."
    },

  "Items": {
    "Air": "Levegő",
    "Grass": "Fű",
    "Dirt": "Föld",
    "Stone": "Kő",
    "Wood": "Fa",
    "Leaf": "Levél",
    "SemiMoltenRock": "Félig olvadt kő",
    "IronOre": "Vasérc",
    "DeadlyOre": "Halálos érc",
    "Chest": "Láda",
    "MidnightGrass": "Éjfélfű",
    "MidnightSoil": "Éjféltalaj",
    "MidnightStone": "Éjfélkő",
    "MidnightWood": "Éjfélfa",
    "MidnightLeaf": "Éjféllevél",
    "Bush": "Bokor",
    "MidnightBush": "Éjfélbokor",
    "RedFlower": "Vörös virág",
    "WhiteFlower": "Fehér virág",
    "BlueFlower": "Kék virág",
    "TallGrass": "Magas fű",
    "Sand": "Homok",
    "Sandstone": "Homokkő",
    "Cactus": "Kaktusz",
    "Snow": "Hó",
    "Ice": "Jég",
    "SnowyBush": "Havas bokor",
    "Glass": "Üveg",
    "SolenoidOre": "Szolenoid érc",
    "SnowyLeaf": "Havas levél",
    "Pumpkin": "Tök",
    "JackOLantern": "Töklámpás",
    "PalmWood": "Pálmafa",
    "PalmLeaf": "Pálmalevél",
    "Water": "Víz",
    "Lava": "Láva",
    "VolcanicRock": "Vulkanikus kő",
    "GrassSlab": "Fűlap",
    "DirtSlab": "Földlap",
    "StoneSlab": "Kőlap",
    "WoodSlab": "Falap",
    "SemiMoltenRockSlab": "Félig olvadt kőlap",
    "MidnightStoneSlab": "Éjfélkőlap",
    "MidnightWoodSlab": "Éjfélfalap",
    "SandstoneSlab": "Homokkőlap",
    "SnowSlab": "Hólap",
    "IceSlab": "Jéglap",
    "GlassSlab": "Üveglap",
    "PalmWoodSlab": "Pálmafalap",
    "VolcanicRockSlab": "Vulkanikus kőlap",
    "Stick": "Bot",
    "Hammer": "Kalapács",
    "IronPick": "Vascsákány",
    "DeadlyPick": "Halálos csákány",
    "IronAxe": "Vaskalapács",
    "DeadlyAxe": "Halálos kalapács",
    "Ultrahammer": "Ultrakalapács",
    "SolenoidCollector": "Szolenoid gyűjtő",
    "Rock": "Szikla",
    "Hypersilk": "Hiperselyem",
    "IronBars": "Vasrudak",
    "DeadlyBars": "Halálos rudak",
    "SolenoidBars": "Szolenoid rudak",
    "Compass": "Iránytű",
    "4DGlasses": "4D szemüveg",
    "KleinBottle": "Klein-kancsó",
    "HealthPotion": "Gyógyital",
    "RedLens": "Vörös lencse",
    "GreenLens": "Zöld lencse",
    "BlueLens": "Kék lencse",
    "Alidade": "Alhidádé",
    "Sign": "Tábla",
    "Bucket": "Vödör",
    "WaterBucket": "Vizes vödör",
    "LavaBucket": "Lávás vödör"
  }
}