{
    "LanguageName": "Lietuvių",

    "LoadingText": "Kraunasi...",
    "OkButton": "OK",
    "CancelButton": "Atšaukti",
    "YesButton": "Taip",
    "NoButton": "Ne",
    "ContinueButton": "Tęsti",
    "BackButton": "Atgal",
    "ExitButton": "Išeiti",
    "EditButton": "Redaguoti",
    "SaveButton": "Išsaugoti",
    "CopyButton": "Kopijuoti",
    "ChooseFileButton": "Pasirinkti failą...",
    "DefaultValueText": "{} (numatytasis)",
    "ErrorPopup": {
        "TitleText": "Klaida!"
    },
    
    "TitleScreen": {
        "DemoText": "DEMO",
        "SingleplayerButton": "Vieno žaidėjo",
        "MultiplayerButton": "Žaisti kartu",
        "TutorialButton": "Pamoka",
        "SettingsButton": "Nustatymai",
        "CreditsButton": "Kūrėjai",
        "QuitButton": "Išeiti iš žaidimo"
    },
    
    "Singleplayer": {
        "YourWorldsText": "Jūsų pasauliai:",
        "NoWorldsText": "Nėra jokių pasaulių...",
        "InvalidWorldButton": "{} (negaliojantis)",
        "OldWorldButton": "{} (senas)",
        "NewWorldButton": "Naujas pasaulis",
        "WorldConversionPopup": {
            "TitleText": "Paversti į Naują Pasaulių Formatą?",
            "OldWorldVersionText": "Pasaulis \"{}\" negali būti pakrautas, nes jis naudoja senesnę pasaulių formato versiją ({}), kuri nėra suderinama su nauja versija ({}).",
            "OldWorldVersionlessText": "Pasaulis \"{}\" negali būti pakrautas, nes jis naudoja senesnę pasaulių formato versiją ({}), kuri nėra suderinama su nauja versija.",
            "ConversionPromptText": "Ar norite paversti pasaulį į dabartinę versiją? Jūs turėsite galimybę pirma sukurti atsarginę kopiją."
        },
        "InvalidWorldPopup": {
            "TitleText": "Negaliojantis Pasaulis!",
            "InvalidVersionText": "Pasaulis \"{}\" negali būti pakrautas, nes jis is yra arba iš ateitinės 4D Miner versijos, arba turi klaidingą versijos numerį."
        }
    },

    "Multiplayer": {
        "ServerAddressText": "Serverio Adresas:",
        "DisplayNameText": "Rodomas Vardas:",
        "DisplayNameInput": "Žaidėjas",
        "UuidText": "UUID:",
        "UuidDescriptionText": "Jūsų UUID yra slapta vertė, kuri sukurta pirmą kartą atidarius šį menių.\nŠie UUID leidžia išsaugoti progresą skirtinguose serveriuose.\n\nNIEKAM NEATSKLEISKITE UUID.\nJūs galite perkelti UUID iš praeitos instaliacijos pakeičiant/redaguojant \"uuid.txt\" failą.",
        "JoinButton": "Prisijungti!",
        "ChangeSkinButton": "Pakeisti išvaizdą",
        "Status": {
            "ResolvingHostText": "Ieškoma serverio IP adreso...",
            "ConnectingText": "Jungiamasi...",
            "AuthenticatingText": "Autentifikuojama...",
            "RemoteDisconnectedText": "Klaida: Serveris uždarė susijungimą.",
            "FailedToConnectText": "Klaida: Nepavyko prisijungti.",
            "ErrorText": "Įvyko klaida.",
            "LoadingTerrainText": "Kraunamas reljefas...",
            "QueuePositionText": "Vieta eilėje: {}",
            "InvalidResponseText": "Klaida: Klaidingas serverio atsakas.",
            "IncompatibleVersionText": "Klaida: Žaidimo versija nesutampa su serverio versija.\n\nPalaikomos versijos: {}",
            "ServerFullText": "Klaida: Šiuo metu serveris yra pilnas.",
            "LostConnectionText": "Klaida: Ryšys buvo prarastas"
        }
    },
    
    "CreateWorld": {
        "WorldNameText": "Pasaulio Pavadinimas:",
        "WorldNameInput": "Naujas Pasaulis",
        "WorldSeedText": "Pasaulio Sėkla:",
        "FlatWorldCheckbox": "Lygus Pasaulis",
        "GenerateCavesCheckbox": "Sukurti urvus (lėčiau)",
        "CaveSizeSlider": "Urvų Dydis: {}%",
        "CaveFrequencySlider": "Urvų Dažnis: {}%",
        "CaveDetailLevelSlider": "Urvų Kruopštumo Lygis: {} (rimtai paveikia našumą)",
        "BiomeSizeSlider": "Biomų Dydis: {}%",
        "TerrainAmplificationSlider": "Reljefo Amplifikacija: {}%",
        "CreateNewWorldButton": "Sukurti Naują Pasaulį!",
        "NoNamePopup": {
            "NoNameText": "Jūs negalite sukurti pasaulio be pavadinimo!"
        }
    },

    "WorldConverter": {
        "CloseWarningText": "NEUŽDARYKITE ŽAIDIMO!",
        "BackupWorldTitle": "{} (atsarginė kopija)",
        "BackupStatusText": "Kuriama pasaulio atsarginė kopija \"{}\"...",
        "ConversionStatusText": "Paverčiamas pasaulis \"{}\" iš versijos {} į versiją {}...",
        "ConversionFinishedText": "Baigta!",
        "BackupPopup": {
            "TitleText": "Kurti \"{}\" failų atsarginę kopiją?",
            "PromptText": "Pasaulio \"{}\" duomenys gali būti sugadinti pasaulio konvertavimo procese. Ar norite pirma sukurti atsarginę kopiją?"
        },
        "ErrorPopup": {
            "GenericConversionErrorText": "Įvyko klaida naujinant pasaulį į versiją {}.",
            "InvalidObjectText": "Nepavyko kopijuoti negalimą objektą \"{}\" (buvo tikėtasi aplanko ar paprasto failo).",
            "CopyErrorText": "Nepavyko kopijuoti objekto \"{}\": \"{}\"",
            "MissingChunksDirText": "Trūksta \"chunks\" aplanko.",
            "UnableToOpenFileText": "Nepavyko atidaryti failo \"{}\"."
        },
        "ConversionStatus": {
            "CleaningUpText": "Valoma..."
        }
    },
    
    "WorldGen": {
        "ProgressText": "{}/{} dalys pakrautos"
    },

    "Settings": {
        "ControlsButton": "Valdikliai",
        "FullscreenButton": {
            "EnterText": "Įeiti į pilno ekrano rėžimą",
            "ExitText": "Išeiti iš pilo ekrano rėžimo"
        },
        "RenderDistanceSlider": "Vaizdavimo Atstumas: {}",
        "ScrollSensitivitySlider": "Slinkimo Greitis:",
        "LookSensitivitySlider": "Žvilgsnio Jautrumas:",
        "InvertLookXCheckbox": "Apversti žiūrėjimą X kryptimi",
        "InvertLookYCheckbox": "Apversti žiūrėjimą Y kryptimi",
        "FovSlider": {
            "LabelText": "Regos laukas: {}",
            "ValueText": "{} laipsniai"
        },
        "DifficultySlider": {
            "LabelText": "Sunkumas: {}",
            "EasyText": "Lengvas (nėra monstrų)",
            "NormalText": "Normalus",
            "HardText": "Sunkus"
        },
        "SmoothLightingCheckbox": "Tolyginis Apšvietimas",
        "ShadowsCheckbox": "Šešėliai",
        "ColoredLightsCheckbox": "Spalvotos Šviesos",
        "Forg": {
            "LabelText": "Valrė: {}",
            "Names": {
                "Frank": "Frankas",
                "Fernanda": "Fernanda"
            }
        },
        "Audio": {
            "LabelText": "Garsas:",
            "GlobalVolumeSlider": "Bendras Garsumas:",
            "MusicVolumeSlider": "Muzikos Garsumas:",
            "CreatureVolumeSlider": "Būtybių Garsumas:",
            "AmbienceVolumeSlider": "Atmosferinis Garsumas:"
        },
        "Multiplayer": {
            "LabelText": "Žaidimas kartu:",
            "ChatCheckbox": "Rodyti pokalbių lauką",
            "NametagsCheckbox": "Rodyti Žmonių Vardo Korteles",
            "SkinsCheckbox": "Rodyti Custom Žmonių Išvaizdas"
        }
    },

    "Tutorial": {
        "Slideshow": {
            "Slide1": {
                "Text1": "Ši pamoka yra skirta padėti jums suprasti 4 dimensijų erdvę.\n\n\n\nPalyginant skirtumus tarp 2D ir 3D erdvės, jūs galite suprasti kaip 3D erdvė siejasi su 4D erdve."
            },
            "Slide2": {
                "Text1": "Čia yra valrė {} (taip, VALRĖ)",
                "Text2": "Valrės yra 2D būtybės, tai reiškia, kad jos gali egzistuoti tik 2D plokštumoje, bet tai nebūtinai reiškia, kad jos negali ištirti 3D erdvę!\n\n\n\nValrės gali judėti viduj bet kokio 2D skerspjūvio 3D pasaulio aplink jas."
            },
            "Slide3": {
                "Text1": "Valrės sykiu turi galimybė pasukti savo egzistencijos plokštumą 3D erdvėje, o tai leidžia joms matyti bet kurį skerspjūvį kurį nori!",
                "Text2": "Sekančioje dalyje, jūs galėsite valdyti {} and patys patirti šią galimybę!"
            },
            "Slide4": {
                "Text1": "Ta pati logika prisitaiko trečiai ir ketvirtai dimensijai.\n\n\nJūs galite slinkti pelės ratuku, kad pasukti savo 4D pasaulio vaizdą ir pamatyti visai naujus savo aplinkos aspektus!",
                "Text2": "Dabar jūs pasiruošę žaisti 4D Miner! Jei jums reikia pagalbos naviguoti per keturias dimensijas, ieškokite",
                "Text3": "kompaso!"
            }
        },
        "ForgGame": {
            "2DViewText": "WASD ar rodyklių klavišai, kad pajudinti valrę {}.\n\nSlinkti pelės ratuku, kad pasukti 2D skerspjūvį!",
            "3DViewText": "Spustelėkite ir vilkite, kad reguliuoti 3D vaizdą"
        }
    },

    "Game": {
        "Chat": {
            "LabelText": "Pokalbių laukas:"
        },
        "CraftingMenu": {
            "LabelText": "Gamyba:"
        },
        "Compass": {
            "PositionText": "Padėtis: {0}, {1}, {2}, {3}",
            "FacingDirectionText": "Žiūrėjimo Kryptis: {0}, {1}, {2}, {3}",
            "XText": "X: {}",
            "YText": "Y: {}",
            "ZText": "Z: {}",
            "WText": "W: {}"
        },
        "Chest": {
            "LabelText": "Skrynia:"
        },
        "Sign": {
            "LabelText": "Ženklas:"
        }
    },

    "Pause": {
        "PausedText": "Pauzė...",
        "BackToGameButton": "Grįžti į žaidimą...",
        "QuitToTitleButton": "Išeiti Į Titulinį Ekraną"
    },

    "DeathScreen": {
        "RetryButton": "Bandyti dar kartą..."
    },

  "Items": {
    "Air": "Oras",
    "Grass": "Žolė",
    "Dirt": "Žemė",
    "Stone": "Akmens Luitas",
    "Wood": "Mediena",
    "Leaf": "Lapas",
    "SemiMoltenRock": "Pusiau-išlydytas Akmuo",
    "IronOre": "Geležies Rūda",
    "DeadlyOre": "Mirtina Rūda",
    "Chest": "Skrynia",
    "MidnightGrass": "Vidurnakčio Žolė",
    "MidnightSoil": "Vidurnakčio Žemė",
    "MidnightStone": "Vidurnakčio Akmens Luitas",
    "MidnightWood": "Vidurnakčio Mediena",
    "MidnightLeaf": "Vidurnakčio Lapas",
    "Bush": "Krūmas",
    "MidnightBush": "Vidurnakčio Krūmas",
    "RedFlower": "Raudona Gėlė",
    "WhiteFlower": "Balta Gėlė",
    "BlueFlower": "Mėlyna Gėlė",
    "TallGrass": "Aukšta Žolė",
    "Sand": "Smėlis",
    "Sandstone": "Smiltainis",
    "Cactus": "Kaktusas",
    "Snow": "Sniegas",
    "Ice": "Ledas",
    "SnowyBush": "Snieguotas Krūmas",
    "Glass": "Stiklas",
    "SolenoidOre": "Solenoidų Rūda",
    "SnowyLeaf": "Snieguotas Lapas",
    "Pumpkin": "Moliūgas",
    "JackOLantern": "Jack o'Lantern",
    "PalmWood": "Palmės Mediena",
    "PalmLeaf": "Palmės Lapas",
    "Water": "Vanduo",
    "Lava": "Lava",
    "VolcanicRock": "Vulkaninis Akmuo",
    "GrassSlab": "Žolės Plytelė",
    "DirtSlab": "Dirt Plytelė",
    "StoneSlab": "Stone Plytelė",
    "WoodSlab": "Wood Plytelė",
    "SemiMoltenRockSlab": "Pusiau-išlydytas Akmuo Plytelė",
    "MidnightStoneSlab": "Vidurnakčio Akmens Plytelė",
    "MidnightWoodSlab": "Vidurnakčio Medienos Plytelė",
    "SandstoneSlab": "Smiltainio Plytelė",
    "SnowSlab": "Sniego Plytelė",
    "IceSlab": "Ledo Plytelė",
    "GlassSlab": "Stiklo Plytelė",
    "PalmWoodSlab": "Palmės Medienos Plytelė",
    "VolcanicRockSlab": "Vulkaninio Akmens Plytelė",
    "Stick": "Pagaliukas",
    "Hammer": "Plaktukas",
    "IronPick": "Geležinis Kirtiklis",
    "DeadlyPick": "Mirtinas Kirtiklis",
    "IronAxe": "Geležinis Kirvis",
    "DeadlyAxe": "Mirtinas Kirvis",
    "Ultrahammer": "Ultraplaktukas",
    "SolenoidCollector": "Solenoidinis kolektorius",
    "Rock": "Akmuo",
    "Hypersilk": "Hiperšilkas",
    "IronBars": "Geležies Luitas",
    "DeadlyBars": "Mirtinas Luitas",
    "SolenoidBars": "Solenoidinis Luitas",
    "Compass": "Kompasas",
    "4DGlasses": "4D Akiniai",
    "KleinBottle": "Kleino Buteliukas",
    "HealthPotion": "Gyvybės Eliksyras",
    "RedLens": "Raudonas Lęšis",
    "GreenLens": "Žalias Lęšis",
    "BlueLens": "Mėlynas Lęšis",
    "Alidade": "Alidadė",
    "Sign": "Ženklas",
    "Bucket": "Kibiras",
    "WaterBucket": "Vandens Kibiras",
    "LavaBucket": "Lavos Kibiras"
  }
}
