{
    "LanguageName": "繁體中文 (香港)",

    "LoadingText": "載入中...",
    "OkButton": "確定",
    "CancelButton": "取消",
    "YesButton": "是",
    "NoButton": "否",
    "ErrorPopup": {
        "TitleText": "錯誤!"
    },
    
    "TitleScreen": {
        "DemoText": "測試版",
        "SingleplayerButton": "單人遊戲",
        "MultiplayerButton": "多人遊戲",
        "TutorialButton": "教程",
        "SettingsButton": "設置",
        "CreditsButton": "製作團隊",
        "QuitButton": "退出遊戲"
    },
    
    "Singleplayer": {
        "YourWorldsText": "你的世界：",
        "NoWorldsText": "沒有世界可以載入...",
        "InvalidWorldButton": "{} (無效)",
        "OldWorldButton": "{} (舊版本)",
        "NewWorldButton": "新世界",
        "WorldConversionPopup": {
            "OldWorldVersionText": "世界 \"{}\" 無法載入，因為它使用的是舊版本的世界格式 ({})，與當前版本 ({}) 不兼容。",
            "OldWorldVersionlessText": "世界 \"{}\" 無法載入，因為它使用的是舊版本的世界格式，與當前版本不兼容。",
            "ConversionPromptText": "是否要將世界轉換到當前版本？您可以選擇先進行備份。"
        },
        "InvalidWorldPopup": {
            "InvalidVersionText": "世界 \"{}\" 無法載入，因為它來自 4D Miner 的未來版本，或其版本號碼無效。"
        }
    },
    
    "CreateWorld": {
        "WorldNameText": "世界名稱：",
        "WorldNameInput": "新世界",
        "WorldSeedText": "世界種子：",
        "FlatWorldCheckbox": "平坦世界",
        "GenerateCavesCheckbox": "生成洞穴（較慢）",
        "CaveSizeSlider": "洞穴大小：{}%",
        "CaveFrequencySlider": "洞穴頻率：{}%",
        "CaveDetailLevelSlider": "洞穴細節等級：{}（嚴重影響性能）",
        "BiomeSizeSlider": "生物群系大小：{}%",
        "TerrainAmplificationSlider": "地形放大：{}%",
        "CreateNewWorldButton": "創建新世界！"
    },

    "WorldConverter": {
        "CloseWarningText": "請勿關閉遊戲！",
        "BackupWorldTitle": "(備份)",
        "BackupStatusText": "正在備份世界 \"{}\"...",
        "ConversionStatusText": "正在將世界 \"{}\" 從版本 {} 轉換到版本 {}...",
        "ConversionFinishedText": "完成！",
        "BackupPopup": {
            "TitleText": "備份 \"{}\" 文件？",
            "PromptText": "世界 \"{}\" 的數據可能會在轉換過程中損壞。您要先進行備份嗎？"
        },
        "ErrorPopup":
        {
            "InvalidObjectText": "無法複製無效對象 \"{}\"（預期為目錄或常規文件）。",
            "CopyErrorText": "無法複製對象 \"{}\": \"{}\""
        }
    },
    
    "WorldGen": {
        "ProgressText": "{}/{} 區塊已載入"
    },

    "Game": {
        "Chat":
        {
            "LabelText": "聊天："
        },
        "CraftingMenu": {
            "LabelText": "合成："
        }
    }
}